^C:\COCOS2D-X\PROJECTS\BONUSWHEEL3\PROJ.WIN32\DEBUG.WIN32\APPDELEGATE.OBJ|C:\COCOS2D-X\PROJECTS\BONUSWHEEL3\PROJ.WIN32\DEBUG.WIN32\BONUSWHEELSCENE.OBJ|C:\COCOS2D-X\PROJECTS\BONUSWHEEL3\PROJ.WIN32\DEBUG.WIN32\GAME.RES|C:\COCOS2D-X\PROJECTS\BONUSWHEEL3\PROJ.WIN32\DEBUG.WIN32\HELLOWORLDSCENE.OBJ|C:\COCOS2D-X\PROJECTS\BONUSWHEEL3\PROJ.WIN32\DEBUG.WIN32\LIBCOCOS2D.LIB|C:\COCOS2D-X\PROJECTS\BONUSWHEEL3\PROJ.WIN32\DEBUG.WIN32\LIBSPINE.LIB|C:\COCOS2D-X\PROJECTS\BONUSWHEEL3\PROJ.WIN32\DEBUG.WIN32\MAIN.OBJ|C:\COCOS2D-X\PROJECTS\BONUSWHEEL3\PROJ.WIN32\DEBUG.WIN32\PRIZE.OBJ|C:\COCOS2D-X\PROJECTS\BONUSWHEEL3\PROJ.WIN32\DEBUG.WIN32\WHEEL.OBJ
C:\COCOS2D-X\PROJECTS\BONUSWHEEL3\PROJ.WIN32\DEBUG.WIN32\BONUSWHEEL3.EXE
C:\COCOS2D-X\PROJECTS\BONUSWHEEL3\PROJ.WIN32\DEBUG.WIN32\BONUSWHEEL3.ILK
C:\COCOS2D-X\PROJECTS\BONUSWHEEL3\PROJ.WIN32\DEBUG.WIN32\BONUSWHEEL3.PDB
